<svg width="200" height="50" xmlns="http://www.w3.org/2000/svg">
 <!-- Created with Method Draw - http://github.com/duopixel/Method-Draw/ -->
 <g>
  <title>background</title>
  <rect fill="none" id="canvas_background" height="52" width="202" y="-1" x="-1"/>
  <g display="none" overflow="visible" y="0" x="0" height="100%" width="100%" id="canvasGrid">
   <rect fill="url(#gridpattern)" stroke-width="0" y="0" x="0" height="100%" width="100%"/>
  </g>
 </g>
 <g>
  <title>Layer 1</title>
  <text font-weight="normal" xml:space="preserve" text-anchor="start" font-family="Helvetica, Arial, sans-serif" font-size="48" id="svg_1" y="42.922495" x="0.911735" stroke-width="0" stroke="#000" fill="#ffffff">X</text>
  <text font-weight="normal" xml:space="preserve" text-anchor="start" font-family="Helvetica, Arial, sans-serif" font-size="36" id="svg_2" y="38.865372" x="50.849664" stroke-width="0" stroke="#000" fill="#ffffff">VUELOS</text>
  <line stroke-linecap="undefined" stroke-linejoin="undefined" id="svg_3" y2="49.583659" x2="39.669599" y1="0.199446" x1="39.669599" stroke-width="1.5" stroke="#ffffff" fill="none"/>
 </g>
</svg>